{
  "images" : [
    {
      "idiom" : "universal",
      "filename" : "210x210.png",
      "scale" : "1x"
    },
    {
      "idiom" : "universal",
      "filename" : "420x420.png",
      "scale" : "2x"
    },
    {
      "idiom" : "universal",
      "filename" : "630x630.png",
      "scale" : "3x"
    }
  ],
  "info" : {
    "version" : 1,
    "author" : "xcode"
  }
}