{
  "images" : [
    {
      "idiom" : "iphone",
      "filename" : "320x480.png",
      "scale" : "1x"
    },
    {
      "idiom" : "iphone",
      "filename" : "751x1335.png",
      "scale" : "2x"
    },
    {
      "idiom" : "iphone",
      "filename" : "1242x2202.png",
      "scale" : "3x"
    },
    {
      "idiom" : "ipad",
      "filename" : "769x1025.png",
      "scale" : "1x"
    },
    {
      "idiom" : "ipad",
      "filename" : "1537x2049.png",
      "scale" : "2x"
    }
  ],
  "info" : {
    "version" : 1,
    "author" : "xcode"
  }
}